\relax 
\@writefile{toc}{\contentsline {chapter}{\numberline {III}ANALISIS ORGANISASI PERUSAHAAN}{9}\protected@file@percent }
\@writefile{lof}{\addvspace {10\p@ }}
\@writefile{lot}{\addvspace {10\p@ }}
\@writefile{toc}{\contentsline {section}{\numberline {3.1}Sejarah Perusahaan}{9}\protected@file@percent }
\@writefile{lof}{\contentsline {figure}{\numberline {III.1}{\ignorespaces Logo Docotel Teknologi}}{9}\protected@file@percent }
\newlabel{docotel}{{III.1}{9}}
\@writefile{toc}{\contentsline {paragraph}{}{9}\protected@file@percent }
\@writefile{toc}{\contentsline {section}{\numberline {3.2}Visi dan Misi Perusahaan}{9}\protected@file@percent }
\@writefile{toc}{\contentsline {subsection}{\numberline {3.2.1}Visi}{9}\protected@file@percent }
\@writefile{toc}{\contentsline {paragraph}{}{9}\protected@file@percent }
\@writefile{toc}{\contentsline {subsection}{\numberline {3.2.2}Misi}{10}\protected@file@percent }
\@writefile{toc}{\contentsline {section}{\numberline {3.3}Deskripsi dan Ruang Lingkup \textit  {Internship} }{10}\protected@file@percent }
\@writefile{toc}{\contentsline {paragraph}{}{10}\protected@file@percent }
\@setckpt{section/chapter3}{
\setcounter{page}{11}
\setcounter{equation}{0}
\setcounter{enumi}{3}
\setcounter{enumii}{0}
\setcounter{enumiii}{0}
\setcounter{enumiv}{0}
\setcounter{footnote}{0}
\setcounter{mpfootnote}{0}
\setcounter{part}{0}
\setcounter{chapter}{3}
\setcounter{section}{3}
\setcounter{subsection}{0}
\setcounter{subsubsection}{0}
\setcounter{paragraph}{0}
\setcounter{subparagraph}{0}
\setcounter{figure}{1}
\setcounter{table}{0}
}
